Untitled Draft
…
Untitled Draft

Report Author

01 October, 2020

Data

## # A tibble: 374,923 x 6
##    sample       amplicon chr     start readseq htype   
##    <chr>           <dbl> <chr>   <dbl>   <dbl> <chr>   
##  1 1_M.bscflags        1 chr1  3567622       1 11111111
##  2 1_M.bscflags        1 chr1  3567622       2 11111111
##  3 1_M.bscflags        1 chr1  3567622       3 11111111
##  4 1_M.bscflags        1 chr1  3567622       4 00111111
##  5 1_M.bscflags        1 chr1  3567622       5 01111111
##  6 1_M.bscflags        1 chr1  3567622       6 11111111
##  7 1_M.bscflags        1 chr1  3567622       7 11111111
##  8 1_M.bscflags        1 chr1  3567622       8 11111111
##  9 1_M.bscflags        1 chr1  3567622       9 11111111
## 10 1_M.bscflags        1 chr1  3567622      10 11111111
## #  with 374,913 more rows
…
Proportion 0.05

## # A tibble: 47 x 4
##    sample         amplicon n_dist htype_length
##    <chr>             <dbl>  <int>        <int>
##  1 1_M.bscflags          1      1            8
##  2 2_M.bscflags          1      1            8
##  3 3_M.bscflags          1      1            8
##  4 33_BS.bscflags        1      3            8
##  5 34_BS.bscflags        1      1            8
##  6 4_M.bscflags          1      1            8
##  7 5_M.bscflags          1      1            8
##  8 6_M.bscflags          1      1            8
##  9 60_M.bscflags         1      2            8
## 10 61_D.bscflags         1      3            8
## #  with 37 more rows

Proportion 0.02

## # A tibble: 47 x 4
##    sample         amplicon n_dist htype_length
##    <chr>             <dbl>  <int>        <int>
##  1 1_M.bscflags          1      3            8
##  2 2_M.bscflags          1      3            8
##  3 3_M.bscflags          1      3            8
##  4 33_BS.bscflags        1      3            8
##  5 34_BS.bscflags        1      6            8
##  6 4_M.bscflags          1      4            8
##  7 5_M.bscflags          1      5            8
##  8 6_M.bscflags          1      5            8
##  9 60_M.bscflags         1      3            8
## 10 61_D.bscflags         1      5            8
## #  with 37 more rows

Proportion 0.01

## # A tibble: 47 x 4
##    sample         amplicon n_dist htype_length
##    <chr>             <dbl>  <int>        <int>
##  1 1_M.bscflags          1      9            8
##  2 2_M.bscflags          1      9            8
##  3 3_M.bscflags          1      9            8
##  4 33_BS.bscflags        1      3            8
##  5 34_BS.bscflags        1      9            8
##  6 4_M.bscflags          1      9            8
##  7 5_M.bscflags          1      9            8
##  8 6_M.bscflags          1      9            8
##  9 60_M.bscflags         1      6            8
## 10 61_D.bscflags         1      9            8
## #  with 37 more rows

Proportion 0.001

## # A tibble: 47 x 4
##    sample         amplicon n_dist htype_length
##    <chr>             <dbl>  <int>        <int>
##  1 1_M.bscflags          1     16            8
##  2 2_M.bscflags          1     13            8
##  3 3_M.bscflags          1     13            8
##  4 33_BS.bscflags        1      3            8
##  5 34_BS.bscflags        1     27            8
##  6 4_M.bscflags          1     15            8
##  7 5_M.bscflags          1     21            8
##  8 6_M.bscflags          1     11            8
##  9 60_M.bscflags         1     19            8
## 10 61_D.bscflags         1     28            8
## #  with 37 more rows

Clustering

We calculated the number of patterns that appears at least 1% of the times for each sample and amplicon. This gives us data on the following form:

## # A tibble: 1,583 x 4
##    sample         amplicon n_pattern htype_length
##    <chr>             <dbl>     <int>        <int>
##  1 1_M.bscflags          1         9            8
##  2 2_M.bscflags          1         9            8
##  3 3_M.bscflags          1         9            8
##  4 33_BS.bscflags        1         3            8
##  5 34_BS.bscflags        1         9            8
##  6 4_M.bscflags          1         9            8
##  7 5_M.bscflags          1         9            8
##  8 6_M.bscflags          1         9            8
##  9 60_M.bscflags         1         6            8
## 10 61_D.bscflags         1         9            8
## #  with 1,573 more rows
…
